Survey analysis based on a Kobo tool • impactR.analysis
…
separate the dataframe to lists by analysis type

map out the analysis for each type

bind all

left_join the other columns

It should contain only one variable to analyze per row (or in the
case of a ratio the two variables to calculate the ratio from separated
by a comma).

# Default
kobo_analysis_from_dap(design, analysis_dap, survey, choices)
#> # A tibble: 23 × 22
#>    group_key group_key_value var    var_value    stat stat_low stat_upp stat_unw
#>    <chr>     <chr>           <chr>  <chr>       <dbl>    <dbl>    <dbl>    <dbl>
#>  1 NA        NA              c_tot… NA        8.28e-1  7.92e-1  8.64e-1  8.40e-1
#>  2 NA        NA              f_5_d… NA        1   e+4  1   e+4  1.20e+4  1   e+4
#>  3 NA        NA              e_aba… NA        9.99e-4  4.40e-5  1.95e-3  1.53e-3
#>  4 NA        NA              h_2_t… aucun     5.42e-2  4.49e-2  6.35e-2  5.67e-2
#>  5 NA        NA              h_2_t… defecati… 1.43e-1  1.27e-1  1.59e-1  1.63e-1
#>  6 NA        NA              h_2_t… latrine_… 1.64e-1  1.46e-1  1.83e-1  1.45e-1
#>  7 NA        NA              h_2_t… latrine_… 1.03e-1  8.53e-2  1.21e-1  1.05e-1
#>  8 NA        NA              h_2_t… nsp       1.88e-3 -1.24e-4  3.88e-3  1.28e-3
#>  9 NA        NA              h_2_t… pnpr      7.42e-4 -1.06e-4  1.59e-3  7.70e-4
#> 10 NA        NA              h_2_t… sac_en_p… 1.68e-2  1.14e-2  2.23e-2  1.57e-2
#> # ℹ 13 more rows
#> # ℹ 14 more variables: n_unw <int>, stat_type <chr>, n_tot_unw <int>,
#> #   n_tot <int>, na_count_tot <int>, analysis_key <chr>, analysis <chr>,
#> #   var_label <chr>, id_analysis <chr>, var_value_label <chr>, sector <chr>,
#> #   indicator <chr>, na_rm <chr>, subset <chr>

# Grouped and confidence level of 0.99
kobo_analysis_from_dap(design, analysis_dap, survey, choices, group = "milieu", level = 0.99)
#> # A tibble: 46 × 23
#>    milieu group_key group_key_value var      var_value    stat stat_low stat_upp
#>    <chr>  <chr>     <chr>           <chr>    <chr>       <dbl>    <dbl>    <dbl>
#>  1 rural  milieu    rural           c_total… NA        9.27e-1  8.53e-1  1.00e+0
#>  2 urbain milieu    urbain          c_total… NA        7.93e-1  7.35e-1  8.52e-1
#>  3 rural  milieu    rural           f_5_dep… NA        8   e+3  7.5 e+3  1   e+4
#>  4 urbain milieu    urbain          f_5_dep… NA        1.23e+4  1   e+4  1.5 e+4
#>  5 rural  milieu    rural           e_aband… NA        1.44e-3 -2.99e-4  3.19e-3
#>  6 urbain milieu    urbain          e_aband… NA        8.16e-4 -3.24e-4  1.96e-3
#>  7 rural  milieu    rural           h_2_typ… aucun     9.13e-2  6.65e-2  1.16e-1
#>  8 rural  milieu    rural           h_2_typ… defecati… 2.56e-1  2.13e-1  3.00e-1
#>  9 rural  milieu    rural           h_2_typ… latrine_… 1.19e-1  8.84e-2  1.50e-1
#> 10 rural  milieu    rural           h_2_typ… latrine_… 9.87e-2  7.25e-2  1.25e-1
#> # ℹ 36 more rows
#> # ℹ 15 more variables: stat_unw <dbl>, n_unw <int>, stat_type <chr>,
#> #   n_tot_unw <int>, n_tot <int>, na_count_tot <int>, analysis_key <chr>,
#> #   analysis <chr>, var_label <chr>, id_analysis <chr>, var_value_label <chr>,
#> #   sector <chr>, indicator <chr>, na_rm <chr>, subset <chr>
…
